{
  "movies": [
    {
      "title": "Believer 2",
      "director": "Jong-Yeol Baek",
      "summary": "A determined detective continues his search for the truth behind Asia's largest drug organization",
      "genres": [
        "Action"
      ],
      "id": 3
    },
    {
      "title": "Oppenheimer",
      "director": "Christopher Nolan",
      "summary": "Oppenheimer is a 2023 epic biographical thriller film written and directed by Christopher Nolan",
      "genres": [
        "Sci-Fi",
        "Action"
      ],
      "id": 4
    },
    {
      "title": "Mendarat Darurat",
      "director": "Pandji Pragiwaksono",
      "summary": "Glen was surprised when he accidentally cheated on death, with infidelity.",
      "genres": [
        "Drama"
      ],
      "id": 5
    },
    {
      "title": "The Killer",
      "director": "David Fincher",
      "summary": "After a fateful near-miss, an assassin battles his employers and himself, on an international manhu",
      "genres": [
        "Action"
      ],
      "id": 6
    },
    {
      "title": "The Medium",
      "director": "A horrifying story of a shaman's inheritance in the Isan region of Thailand. What could be possessing a family member might not be the Goddess they make it out to be.",
      "summary": "Banjong Pisanthanakun",
      "genres": [
        "Animation",
        "Horror"
      ],
      "id": 7
    }
  ]
}